<svg xmlns="http://www.w3.org/2000/svg" xmlns:xlink="http://www.w3.org/1999/xlink" width="78" height="78" viewBox="0 0 78 78">
  <defs>
    <filter id="Ellipse_1" x="0" y="0" width="78" height="78" filterUnits="userSpaceOnUse">
      <feOffset dy="3" input="SourceAlpha"/>
      <feGaussianBlur stdDeviation="3" result="blur"/>
      <feFlood flood-opacity="0.161"/>
      <feComposite operator="in" in2="blur"/>
      <feComposite in="SourceGraphic"/>
    </filter>
  </defs>
  <g id="Btn-theme" transform="translate(-1585 -46)">
    <g transform="matrix(1, 0, 0, 1, 1585, 46)" filter="url(#Ellipse_1)">
      <circle id="Ellipse_1-2" data-name="Ellipse 1" cx="30" cy="30" r="30" transform="translate(9 6)" fill="#fff"/>
    </g>
    <path id="sun-solid" d="M23.471,14.669a8.8,8.8,0,1,0,8.8,8.8A8.816,8.816,0,0,0,23.471,14.669Zm22.591,7.38-8.682-4.337,3.071-9.2A1.585,1.585,0,0,0,38.443,6.5l-9.2,3.071L24.892.88a1.587,1.587,0,0,0-2.842,0L17.713,9.563,8.5,6.491A1.585,1.585,0,0,0,6.491,8.5l3.071,9.2L.88,22.05a1.587,1.587,0,0,0,0,2.842l8.682,4.337L6.491,38.443A1.585,1.585,0,0,0,8.5,40.45l9.2-3.071,4.337,8.682a1.587,1.587,0,0,0,2.842,0l4.337-8.682,9.2,3.071a1.585,1.585,0,0,0,2.008-2.008l-3.071-9.2L46.043,24.9a1.589,1.589,0,0,0,.018-2.851ZM31.768,31.768a11.734,11.734,0,1,1,0-16.595A11.748,11.748,0,0,1,31.768,31.768Z" transform="translate(1601 58.604)" fill="#ffe05f"/>
  </g>
</svg>
